
*picture_2015-04-22_11-41-22.png
objectPoints: 
 [0, 0, 0;
  1, 0, 0;
  2, 0, 0;
  0, 1, 0;
  1, 1, 0;
  2, 1, 0;
  0, 2, 0;
  1, 2, 0;
  2, 2, 0]
imagePoints: 
 [77.654587, 48.596653;
  97.606987, 48.900131;
  117.5552, 49.171101;
  77.498627, 66.735687;
  97.44902, 66.875046;
  117.40081, 67.253075;
  77.272072, 84.887741;
  97.302078, 85.094955;
  117.34327, 85.303062]

*picture_2015-04-22_11-41-26.png
objectPoints: 
 [0, 0, 0;
  1, 0, 0;
  2, 0, 0;
  0, 1, 0;
  1, 1, 0;
  2, 1, 0;
  0, 2, 0;
  1, 2, 0;
  2, 2, 0]
imagePoints: 
 [75.333267, 50.605061;
  92.526878, 50.593933;
  109.67616, 50.59668;
  75.137199, 65.291359;
  92.741089, 65.279045;
  110.47096, 65.24894;
  74.828133, 80.587456;
  93.109543, 80.605286;
  111.24156, 80.57814]

*picture_2015-04-22_11-41-33.png
objectPoints: 
 [0, 0, 0;
  1, 0, 0;
  2, 0, 0;
  0, 1, 0;
  1, 1, 0;
  2, 1, 0;
  0, 2, 0;
  1, 2, 0;
  2, 2, 0]
imagePoints: 
 [75.855812, 50.157677;
  88.50901, 55.003551;
  101.34126, 59.999424;
  71.088287, 60.975765;
  83.735474, 65.910149;
  96.668579, 70.93576;
  65.917007, 71.964226;
  78.851303, 77.102547;
  92.052231, 82.377785]

*picture_2015-04-22_11-41-42.png
objectPoints: 
 [0, 0, 0;
  1, 0, 0;
  2, 0, 0;
  0, 1, 0;
  1, 1, 0;
  2, 1, 0;
  0, 2, 0;
  1, 2, 0;
  2, 2, 0]
imagePoints: 
 [112.50422, 48.08342;
  119.375, 59.462563;
  126.98398, 71.934441;
  96.762138, 51.934849;
  103.15945, 63.815357;
  110.11976, 76.610085;
  80.522133, 55.996403;
  86.246498, 68.391716;
  92.490028, 81.6576]

*picture_2015-04-22_11-41-56.png
objectPoints: 
 [0, 0, 0;
  1, 0, 0;
  2, 0, 0;
  0, 1, 0;
  1, 1, 0;
  2, 1, 0;
  0, 2, 0;
  1, 2, 0;
  2, 2, 0]
imagePoints: 
 [106.22769, 53.088951;
  113.05119, 64.011185;
  120.82045, 76.249611;
  90.260345, 57.026844;
  96.506462, 68.553535;
  103.56464, 81.329224;
  73.456749, 61.210941;
  79.015839, 73.327332;
  85.298004, 86.578041]

*picture_2015-04-22_11-42-00.png
objectPoints: 
 [0, 0, 0;
  1, 0, 0;
  2, 0, 0;
  0, 1, 0;
  1, 1, 0;
  2, 1, 0;
  0, 2, 0;
  1, 2, 0;
  2, 2, 0]
imagePoints: 
 [67.190178, 56.147144;
  83.325073, 58.871452;
  99.851875, 61.9002;
  61.934029, 66.345833;
  78.941101, 69.475243;
  96.55674, 72.667831;
  55.972569, 77.478722;
  74.235291, 81.216759;
  92.846794, 84.945793]

*picture_2015-04-22_11-42-05.png
objectPoints: 
 [0, 0, 0;
  1, 0, 0;
  2, 0, 0;
  0, 1, 0;
  1, 1, 0;
  2, 1, 0;
  0, 2, 0;
  1, 2, 0;
  2, 2, 0]
imagePoints: 
 [112.94435, 71.985229;
  103.01781, 80.559608;
  91.769699, 90.107071;
  98.917503, 64.496323;
  88.573151, 72.442955;
  77.182281, 80.914696;
  86.032646, 57.971901;
  75.625488, 65.116852;
  64.17347, 72.632759]

*picture_2015-04-22_11-42-10.png
objectPoints: 
 [0, 0, 0;
  1, 0, 0;
  2, 0, 0;
  0, 1, 0;
  1, 1, 0;
  2, 1, 0;
  0, 2, 0;
  1, 2, 0;
  2, 2, 0]
imagePoints: 
 [110.45927, 74.287376;
  103.57108, 81.339333;
  96.309555, 88.959015;
  98.597458, 68.72403;
  91.571388, 75.426964;
  83.948128, 82.419563;
  87.681152, 63.687706;
  80.391632, 69.915413;
  72.467499, 76.411522]

*picture_2015-04-22_11-42-21.png
objectPoints: 
 [0, 0, 0;
  1, 0, 0;
  2, 0, 0;
  0, 1, 0;
  1, 1, 0;
  2, 1, 0;
  0, 2, 0;
  1, 2, 0;
  2, 2, 0]
imagePoints: 
 [58.14497, 45.234573;
  90.120338, 45.709187;
  121.93609, 46.293335;
  55.973606, 71.596107;
  90.280815, 72.207535;
  124.16618, 72.499809;
  53.118931, 102.23589;
  90.345024, 102.36886;
  127.2911, 103.00459]

*picture_2015-04-22_11-42-27.png
objectPoints: 
 [0, 0, 0;
  1, 0, 0;
  2, 0, 0;
  0, 1, 0;
  1, 1, 0;
  2, 1, 0;
  0, 2, 0;
  1, 2, 0;
  2, 2, 0]
imagePoints: 
 [59.992397, 38.584461;
  87.425224, 42.235275;
  112.02398, 45.298668;
  60.668407, 63.196289;
  89.427444, 65.379707;
  115.10123, 67.245033;
  61.500858, 90.326363;
  91.720459, 90.915833;
  118.62716, 91.639229]
